{
    "antifeatures": {
        "Ads": "Это приложение содержит рекламу",
        "DisabledAlgorithm": "Это приложение имеет слабую подпись безопасности",
        "KnownVuln": "Это приложение содержит известную уязвимость безопасности",
        "NoSourceSince": "Исходный код больше недоступен, обновления невозможны.",
        "NonFreeAdd": "Это приложение поддерживает дополнения с закрытым исходным кодом",
        "NonFreeAssets": "Это приложение включает в себя ресурсы с закрытым исходным кодом",
        "NonFreeDep": "Это приложение зависит от других приложений с закрытым исходным кодом",
        "NonFreeNet": "Это приложение продвигает сетевые сервисы с закрытым исходным кодом, собирающие пользовательские данные",
        "Tracking": "Это приложение будет отслеживать ваши действия и сообщать о вашей деятельности",
        "UpstreamNonFree": "Оригинальный исходный код не является полностью свободным"
    },
    "index": {
        "download_fdroid": "Скачать F-Droid",
        "gpg_signature": "Подпись PGP",
        "introduction": "F-Droid — это каталог свободных приложений с открытым исходным кодом (FOSS) для платформы Android. Программа позволяет легко находить и устанавливать приложения на ваше устройство и отслеживать их обновления.",
        "screenshot": "Снимок экрана приложения F-Droid для Android",
        "title": "Что такое F-Droid?"
    },
    "navigation": {
        "about": "Об F-Droid",
        "browse": "Каталог",
        "contribute": "Помочь",
        "documentation": "Документация",
        "forum": "Форум",
        "issues": "Ошибки",
        "news": "Новости"
    },
    "package": {
        "anti_features": "Неприятные особенности",
        "anti_features_warning": "Приложение имеет некоторые особенности, которые могут Вам не понравиться.",
        "author": "Автор",
        "build_metadata": "Метаданные сборки",
        "changelog": "История изменений",
        "donate": "Пожертвовать",
        "download": "Скачать [file_extension]",
        "flattr": "Flattr",
        "gpg_signature": "Подпись PGP",
        "issue_tracker": "Система отслеживания ошибок",
        "liberapay": "Liberapay",
        "license": "Лицензия",
        "minimum_android_version": "Этой версии требуется Android [android_version] и выше.",
        "new_in_version": "Новое в версии [latest_version]",
        "packages": "Пакеты",
        "permissions": "Разрешения",
        "signed_by_developer": "Приложение собрано и подписано автором-разработчиком.",
        "signed_by_fdroid": "Собрано и подписано F-Droid, и точно соответствует <a href=\"[source_code_url]\">исходному коду из архива</a>.",
        "source_code": "Исходный код",
        "suggest_downloading_via_fdroid": "Можно выбрать загрузку приложения в виде APK (доступно по ссылкам ниже), однако следует помнить, что при такой установке вы не сможете получать уведомления об обновлениях, и что это менее безопасный способ скачивания. Советуем установить приложение F-Droid и использовать его.",
        "technical_info": "Технические сведения",
        "translation": "Перевод",
        "version_info": "<b>Версия [package_version]</b> ([package_version_code]) - Добавлена [package_added_date]",
        "website": "Сайт"
    },
    "permissions": {
        "permdesc_acceptHandovers": "Разрешает приложению продолжить вызов, начатый в другом приложении.",
        "permdesc_accessCoarseLocation": "Приложение может получать сведения о вашем местоположении от сетевых источников, таких как вышки сотовой связи и точки доступа Wi-Fi. Необходимо включить соответствующие параметры на телефоне и разрешить приложению использовать геоданные.",
        "permdesc_accessDrmCertificates": "Приложение сможет синхронизировать и использовать сертификаты DRM (разрешение актуально только для специальных приложений).",
        "permdesc_accessFineLocation": "Приложение может получать сведения о вашем местоположении от GPS-датчика или сетевых источников, таких как вышки сотовой связи и точки доступа Wi-Fi. Необходимо включить соответствующие параметры на телефоне и разрешить приложению использовать геоданные. Может увеличиться расход заряда батареи.",
        "permdesc_accessImsCallService": "Позволяет приложению совершать звонки с помощью службы IMS без вашего вмешательства.",
        "permdesc_accessLocationExtraCommands": "Доступ к дополнительным командам управления источниками геоданных и вмешательство в работу системы GPS или других источников геоданных.",
        "permdesc_accessNetworkConditions": "Приложение сможет использовать данные о состоянии сети. Это разрешение обычно используется только специальными приложениями.",
        "permdesc_accessNetworkState": "Приложение сможет просматривать информацию о сетевых подключениях, например о том, какие сети доступны и к каким из них вы подключены.",
        "permdesc_accessNotifications": "Приложение сможет получать, проверять и удалять уведомления, включая те, что опубликованы другими приложениями.",
        "permdesc_accessWifiState": "Приложение сможет просматривать информацию о сети Wi-Fi: состояние сети и имена подключенных устройств.",
        "permdesc_accessWimaxState": "Приложение сможет определять, активирован ли WiMAX, а также получать информацию о подключенных сетях WiMAX.",
        "permdesc_access_notification_policy": "Открывает приложению доступ к настройкам режима \\\"Не беспокоить\\\" и позволяет изменять их.",
        "permdesc_addVoicemail": "Приложение сможет добавлять голосовые сообщения в папку \\\"Входящие\\\".",
        "permdesc_answerPhoneCalls": "Приложению разрешено отвечать на входящие вызовы.",
        "permdesc_bindCarrierMessagingService": "Подключение к базовому интерфейсу службы обмена сообщениями, предоставляемой оператором связи. Это разрешение обычно используется только специальными приложениями.",
        "permdesc_bindCarrierServices": "Приложение сможет подключаться к сервисам оператора связи. Это разрешение не используется обычными приложениями.",
        "permdesc_bindConditionProviderService": "Приложение сможет подключаться к базовому интерфейсу поставщиков условий. Это разрешение обычно используется только специальными приложениями.",
        "permdesc_bindDreamService": "Подключение к базовому интерфейсу службы экранных заставок. Это разрешение не используется обычными приложениями.",
        "permdesc_bindNotificationListenerService": "Приложение сможет подключаться к базовому интерфейсу службы просмотра уведомлений. Это разрешение не используется обычными приложениями.",
        "permdesc_bind_connection_service": "Доступ к службам телефонии для совершения и приема вызовов.",
        "permdesc_bind_incall_service": "Управление экраном во время разговора.",
        "permdesc_bluetooth": "Приложение сможет просматривать конфигурацию Bluetooth на телефоне, а также запрашивать и подтверждать соединение с другими устройствами.",
        "permdesc_bluetoothAdmin": "Приложение сможет настраивать параметры локального телефона с поддержкой Bluetooth, а также обнаруживать удаленные устройства и устанавливать соединение с ними.",
        "permdesc_bodySensors": "Приложение сможет получить доступ к данным датчиков, размещенных на теле, например измеряющих частоту сердцебиения.",
        "permdesc_broadcastSticky": "Приложение сможет делать несрочные рассылки, которые не удаляются после их отправки. Злоупотребление этими рассылками может замедлить работу телефона или сделать ее нестабильной из-за чрезмерного использования памяти.",
        "permdesc_callPhone": "Приложение сможет без вашего участия звонить на любой номер телефона. Это не относится к номерам экстренных служб. Вредоносные программы смогут совершать вызовы без вашего разрешения, что может привести к непредвиденным расходам.",
        "permdesc_camera": "Приложение может в любое время делать фотографии и снимать видео с помощью камеры.",
        "permdesc_changeNetworkState": "Приложение сможет изменять состояние подключения к сети.",
        "permdesc_changeTetherState": "Приложение сможет включать и выключать режим модема.",
        "permdesc_changeWifiMulticastState": "Приложение сможет получать пакеты, отправленные всем устройствам в сети Wi-Fi (не только вашему телефону) в многоадресной рассылке. При этом расходуется больше энергии, чем в одноадресном режиме.",
        "permdesc_changeWifiState": "Приложение сможет подключаться к точкам доступа Wi-Fi и отключаться от них, а также изменять конфигурацию сетей Wi-Fi на устройстве.",
        "permdesc_changeWimaxState": "Приложение сможет подключать устройство к сетям WiMAX и отключать его от них.",
        "permdesc_connection_manager": "Управление сетевыми подключениями.",
        "permdesc_control_incall_experience": "Работа с приложением во время разговора.",
        "permdesc_createNetworkSockets": "Приложение сможет создавать сетевые сокеты и использовать различные сетевые протоколы. Так как браузер и другие приложения обеспечивают средства для отправки данных в Интернет, это разрешение предоставлять не обязательно.",
        "permdesc_disableKeyguard": "Приложение сможет отключать блокировку экрана и другие функции защиты. Например, блокировка экрана будет отключаться при получении входящего вызова и включаться после завершения разговора.",
        "permdesc_enableCarMode": "Приложение сможет включать режим \\\"Штурман\\\".",
        "permdesc_expandStatusBar": "Приложение сможет разворачивать и сворачивать строку состояния.",
        "permdesc_foregroundService": "Разрешить приложению использовать активные сервисы.",
        "permdesc_getAccounts": "Приложение сможет получить список всех используемых на устройстве аккаунтов, в том числе созданных установленными приложениями.",
        "permdesc_getPackageSize": "Приложение сможет получать сведения о размере кода, данных и кеша.",
        "permdesc_getTasks": "Приложение сможет получать информацию о недавно запущенных и выполняемых задачах, а следовательно, и о приложениях, используемых на устройстве.",
        "permdesc_handoverStatus": "Получение информации о текущих передачах Android Beam.",
        "permdesc_install_shortcut": "Приложение сможет добавлять ярлыки на главный экран без вмешательства пользователя.",
        "permdesc_invokeCarrierSetup": "Владелец сможет запускать приложение настроек, предоставленное оператором. Это разрешение не используется обычными приложениями.",
        "permdesc_killBackgroundProcesses": "Приложение сможет завершать фоновые процессы других приложений. Из-за этого другие приложения могут прекратить работу.",
        "permdesc_manageFingerprint": "Приложение сможет добавлять и удалять шаблоны отпечатков пальцев.",
        "permdesc_manageNetworkPolicy": "Приложение сможет управлять сетевыми политиками и определять правила для отдельных приложений.",
        "permdesc_manageOwnCalls": "Приложение сможет перенаправлять звонки в системе с целью улучшения качества связи.",
        "permdesc_manageProfileAndDeviceOwners": "Приложения смогут определять владельцев профилей и владельца устройства.",
        "permdesc_modifyAudioSettings": "Приложение сможет изменять системные настройки звука, например уровень громкости и активный динамик.",
        "permdesc_modifyNetworkAccounting": "Приложение сможет изменять порядок расчета использования сетевых ресурсов различными программами. Это разрешение не используется обычными приложениями.",
        "permdesc_nfc": "Приложение сможет обмениваться данными с NFC-метками, картами и устройствами считывания, используя NFC.",
        "permdesc_persistentActivity": "Приложение сможет постоянно хранить свои компоненты в памяти. Это может уменьшить объем памяти, доступный другим приложениям, и замедлить работу устройства.",
        "permdesc_processOutgoingCalls": "Приложение сможет видеть набранный номер во время исходящего вызова и при необходимости перенаправлять вызов или завершать его.",
        "permdesc_readCalendar": "Приложение может считывать, отправлять и сохранять информацию о мероприятиях в календаре телефона.",
        "permdesc_readCallLog": "Приложение может считывать данные журнала звонков.",
        "permdesc_readCellBroadcasts": "Приложение получит доступ к сообщениям широковещательных SMS-служб, которые в некоторых странах используются для информирования населения об экстренных ситуациях. Вредоносные программы могут помешать работе устройства, на которое поступают такие сообщения.",
        "permdesc_readContacts": "Приложение сможет просматривать и сохранять все данные о контактах на устройстве, включая то, как часто вы звоните, отправляете письма и другими способами связываетесь с определенными людьми. Вредоносные программы смогут передавать данные о контактах без уведомления.",
        "permdesc_readHistoryBookmarks": "Приложение получит доступ к истории и закладкам браузера. Обратите внимание: браузеры независимых поставщиков или другие приложения для просмотра веб-страниц могут не применять это разрешение.",
        "permdesc_readInstallSessions": "Чтение данных текущих сеансов установки пакетов.",
        "permdesc_readNetworkUsageHistory": "Приложение сможет считывать сохраненную историю использования определенных сетей и приложений.",
        "permdesc_readPhoneNumbers": "Разрешает приложению доступ к телефонным номерам устройства.",
        "permdesc_readPhoneState": "Приложение получит доступ к функциям телефона на устройстве. Кроме того, оно сможет определять номера телефонов и серийные номера моделей, состояние активности вызова, а также удаленные номера, с которыми установлено соединение.",
        "permdesc_readSms": "Приложение может считывать SMS-сообщения на телефоне.",
        "permdesc_readSyncSettings": "Приложение сможет просматривать настройки синхронизации аккаунта, например определять, включена ли синхронизация для приложения \\\"Контакты\\\".",
        "permdesc_readSyncStats": "Приложение сможет просматривать статистику синхронизации аккаунта, в том числе историю событий и объем синхронизированных данных.",
        "permdesc_receiveBootCompleted": "Приложение сможет запускаться после начальной загрузки системы. Это может привести к увеличению времени включения телефона и уменьшить его быстродействие в связи с постоянной работой приложения.",
        "permdesc_receiveMms": "Приложение сможет получать и обрабатывать MMS. Это значит, что оно сможет отслеживать и удалять отправленные на ваше устройство сообщения, не показывая их.",
        "permdesc_receiveSms": "Приложение сможет получать и обрабатывать SMS. Это значит, что оно сможет отслеживать и удалять отправленные на ваше устройство сообщения, не показывая их.",
        "permdesc_receiveWapPush": "Приложение сможет получать и обрабатывать WAP-сообщения. Это значит, что оно сможет отслеживать и удалять отправленные на ваше устройство сообщения, не показывая их.",
        "permdesc_recordAudio": "Приложение может в любое время записывать аудио с помощью микрофона.",
        "permdesc_register_call_provider": "Регистрация новых операторов связи.",
        "permdesc_register_sim_subscription": "Регистрация новых SIM-карт.",
        "permdesc_removeDrmCertificates": "Удаление сертификатов DRM. Большинству приложений это разрешение не требуется.",
        "permdesc_reorderTasks": "Приложение сможет переключать активный и фоновый режимы выполнения задач без вашего ведома.",
        "permdesc_requestDeletePackages": "Приложение сможет запрашивать разрешения на удаление пакетов.",
        "permdesc_requestIgnoreBatteryOptimizations": "Разрешает приложению игнорировать ограничение на расход заряда батареи.",
        "permdesc_requestInstallPackages": "Приложение сможет запрашивать разрешения на установку пакетов.",
        "permdesc_route_media_output": "Приложение сможет направлять поток мультимедиа на другие внешние устройства.",
        "permdesc_runInBackground": "Приложению разрешено работать в фоновом режиме. Заряд батареи может расходоваться быстрее.",
        "permdesc_sdcardRead": "Приложение сможет считывать данные на SD-карте.",
        "permdesc_sdcardWrite": "Приложение сможет записывать данные на SD-карту.",
        "permdesc_sendSms": "Приложение сможет отправлять SMS. Учтите, что вредоносные программы смогут отправлять сообщения без уведомления, что может привести к непредвиденным расходам.",
        "permdesc_setAlarm": "Приложение сможет настраивать будильник. Функция поддерживается не во всех программах.",
        "permdesc_setInputCalibration": "Приложение сможет изменять параметры калибровки сенсорного экрана. Это разрешение обычно используется только специальными приложениями.",
        "permdesc_setTimeZone": "Приложение сможет изменять часовой пояс в настройках устройства.",
        "permdesc_setWallpaper": "Приложение сможет устанавливать системные обои.",
        "permdesc_setWallpaperHints": "Приложение сможет устанавливать подсказки по размеру системных обоев.",
        "permdesc_sim_communication": "Приложение сможет отправлять команды SIM-карте (данное разрешение представляет большую угрозу).",
        "permdesc_statusBar": "Приложение сможет отключать строку состояния, а также добавлять и удалять системные значки.",
        "permdesc_statusBarService": "Приложение сможет заменять собой строку состояния.",
        "permdesc_subscribedFeedsRead": "Приложение сможет получать сведения о синхронизируемых в настоящее время фидах.",
        "permdesc_systemAlertWindow": "Приложение может открываться поверх других окон. Это может влиять на работу с другими приложениями.",
        "permdesc_transmitIr": "Приложение сможет использовать инфракрасный передатчик телефона.",
        "permdesc_uninstall_shortcut": "Приложение сможет удалять ярлыки с главного экрана без вмешательства пользователя.",
        "permdesc_useBiometric": "Приложение сможет использовать биометрическое оборудование для аутентификации",
        "permdesc_useDataInBackground": "Приложению разрешено передавать данные в фоновом режиме. Возможно увеличение расхода трафика.",
        "permdesc_useFingerprint": "Приложение сможет использовать сканер отпечатков пальцев для аутентификации.",
        "permdesc_use_sip": "Разрешить вызовы по протоколу SIP.",
        "permdesc_vibrate": "Приложение сможет контролировать вибросигналы.",
        "permdesc_wakeLock": "Приложение сможет запрещать перевод телефона в спящий режим.",
        "permdesc_writeCalendar": "Приложение может добавлять, удалять или изменять мероприятия в календаре на телефоне. Оно также может отправлять сообщения от имени владельцев календаря, а также изменять мероприятия без ведома владельца.",
        "permdesc_writeCallLog": "Приложение сможет вносить изменения в список вызовов телефона и данные о входящих и исходящих звонках. Вредоносные приложения смогут воспользоваться этим для удаления или изменения информации о звонках.",
        "permdesc_writeContacts": "Приложение сможет изменять сведения о контактах на вашем телефоне, включая то, как часто вы звоните, отправляете письма и другими способами связываетесь с определенными людьми. С этим разрешением приложения смогут удалять данные о контактах.",
        "permdesc_writeGeolocationPermissions": "Приложение сможет изменять настройки доступа к геоданным в браузере. Вредоносные программы смогут таким образом отправлять информацию о местоположении на любые веб-сайты.",
        "permdesc_writeHistoryBookmarks": "Приложение сможет изменять историю или закладки браузера, сохраненные на телефоне, а также удалять и изменять данные браузера. Обратите внимание: браузеры независимых поставщиков или другие приложения для просмотра веб-страниц могут не применять это разрешение.",
        "permdesc_writeSettings": "Приложение сможет изменять настройки системы. Вредоносные программы смогут повредить конфигурацию системы.",
        "permdesc_writeSyncSettings": "Приложение сможет изменять настройки синхронизации аккаунта. Например, с помощью этого разрешения можно включить в аккаунте синхронизацию контактов.",
        "permgroupdesc_calendar": "доступ к календарю",
        "permgroupdesc_calllog": "чтение и запись телефонных звонков",
        "permgroupdesc_camera": "снимать фото и видео",
        "permgroupdesc_contacts": "доступ к контактам",
        "permgroupdesc_location": "доступ к данным о местоположении устройства",
        "permgroupdesc_microphone": "записывать аудио",
        "permgroupdesc_phone": "осуществлять вызовы и управлять ими",
        "permgroupdesc_sensors": "доступ к данным датчиков о состоянии организма",
        "permgroupdesc_sms": "отправлять и просматривать SMS-сообщения",
        "permgroupdesc_storage": "доступ к фото, мультимедиа и файлам на вашем устройстве",
        "permgrouplab_calendar": "Календарь",
        "permgrouplab_calllog": "Список вызовов",
        "permgrouplab_camera": "Камера",
        "permgrouplab_contacts": "Контакты",
        "permgrouplab_location": "Местоположение",
        "permgrouplab_microphone": "Микрофон",
        "permgrouplab_phone": "Телефон",
        "permgrouplab_sensors": "Нательные датчики",
        "permgrouplab_sms": "SMS",
        "permgrouplab_storage": "Хранилище",
        "permgrouprequest_calendar": "Разрешить приложению <b>",
        "permgrouprequest_calllog": "Разрешить приложению <b>",
        "permgrouprequest_camera": "Разрешить приложению <b>\\",
        "permgrouprequest_contacts": "Разрешить приложению <b>",
        "permgrouprequest_location": "Разрешить приложению <b>",
        "permgrouprequest_microphone": "Разрешить приложению <b>",
        "permgrouprequest_phone": "Разрешить приложению <b>",
        "permgrouprequest_sensors": "Разрешить приложению <b>",
        "permgrouprequest_sms": "Разрешить приложению <b>",
        "permgrouprequest_storage": "Разрешить приложению <b>",
        "permlab_acceptHandover": "Продолжить вызов, начатый в другом приложении",
        "permlab_accessCoarseLocation": "Доступ к примерному местоположению (по координатам сети)",
        "permlab_accessDrmCertificates": "Доступ к сертификатам DRM",
        "permlab_accessFineLocation": "Доступ к точному местоположению (по координатам сети и спутникам GPS)",
        "permlab_accessImsCallService": "совершение звонков с помощью службы IMS",
        "permlab_accessLocationExtraCommands": "Доступ к дополнительным командам управления источниками геоданных",
        "permlab_accessNetworkConditions": "Использование данных о состоянии сети",
        "permlab_accessNetworkState": "Просмотр сетевых подключений",
        "permlab_accessNotifications": "Доступ к уведомлениям",
        "permlab_accessWifiState": "Просмотр подключений Wi-Fi",
        "permlab_accessWimaxState": "подключать/отключать сеть WiMAX",
        "permlab_access_notification_policy": "Доступ к режиму \\\"Не беспокоить\\",
        "permlab_addVoicemail": "Добавление голосовых сообщений",
        "permlab_answerPhoneCalls": "Ответ на входящие вызовы",
        "permlab_bindCarrierMessagingService": "Подключение к службе обмена сообщениями",
        "permlab_bindCarrierServices": "Подключение к сервисам оператора связи",
        "permlab_bindConditionProviderService": "Подключение к серверам поставщиков условий",
        "permlab_bindDreamService": "Подключение к службе экранных заставок",
        "permlab_bindNotificationListenerService": "Подключение к службе просмотра уведомлений",
        "permlab_bind_connection_service": "доступ к службам телефонии",
        "permlab_bind_incall_service": "Управление экраном во время разговора",
        "permlab_bluetooth": "Установление соединения с устройствами Bluetooth",
        "permlab_bluetoothAdmin": "Доступ к настройкам Bluetooth",
        "permlab_bodySensors": "Датчики (например, пульсометр)",
        "permlab_broadcastSticky": "Отправка сообщений с их последующим сохранением",
        "permlab_callPhone": "Осуществление телефонных вызовов",
        "permlab_camera": "Фото- и видеосъемка",
        "permlab_changeNetworkState": "Изменение сетевых настроек",
        "permlab_changeTetherState": "Изменение подключения к компьютеру",
        "permlab_changeWifiMulticastState": "Получение данных по многоадресной рассылке через Wi-Fi",
        "permlab_changeWifiState": "Подключение/отключение от сети Wi-Fi",
        "permlab_changeWimaxState": "Изменение статуса WiMAX",
        "permlab_connection_manager": "управление подключениями",
        "permlab_control_incall_experience": "Работа с приложением во время разговора",
        "permlab_createNetworkSockets": "Неограниченный доступ к Интернету",
        "permlab_disableKeyguard": "Отключение функции блокировки экрана",
        "permlab_enableCarMode": "Включение режима громкой связи",
        "permlab_expandStatusBar": "Разворачивание/сворачивание строки состояния",
        "permlab_foregroundService": "запускать активные сервисы",
        "permlab_getAccounts": "Поиск аккаунтов на устройстве",
        "permlab_getPackageSize": "Вычисление объема памяти приложений",
        "permlab_getTasks": "Получение данных о запущенных приложениях",
        "permlab_handoverStatus": "Получение статуса передачи Android Beam",
        "permlab_install_shortcut": "Создание ярлыков",
        "permlab_invokeCarrierSetup": "Запуск приложения настроек, предоставленного оператором",
        "permlab_killBackgroundProcesses": "Закрытие других приложений",
        "permlab_manageFingerprint": "управление сканером отпечатков",
        "permlab_manageNetworkPolicy": "Управление сетевой политикой",
        "permlab_manageOwnCalls": "перенаправлять звонки в системе",
        "permlab_manageProfileAndDeviceOwners": "Управление профилями и владельцами",
        "permlab_modifyAudioSettings": "Изменение настроек аудио",
        "permlab_modifyNetworkAccounting": "Изменение учета использования сети",
        "permlab_nfc": "Управление NFC-модулем",
        "permlab_persistentActivity": "Поддержание приложения в рабочем режиме",
        "permlab_processOutgoingCalls": "Перенаправление исходящих вызовов",
        "permlab_readCalendar": "Чтение мероприятий и данных",
        "permlab_readCallLog": "Просмотр журнала вызовов",
        "permlab_readCellBroadcasts": "Читать сообщения массовой рассылки",
        "permlab_readContacts": "Просмотр контактов",
        "permlab_readHistoryBookmarks": "Просмотр закладок и истории поиска",
        "permlab_readInstallSessions": "Чтение данных сеансов установки",
        "permlab_readNetworkUsageHistory": "Просмотр журнала использования сети",
        "permlab_readPhoneNumbers": "чтение номеров телефонов",
        "permlab_readPhoneState": "Получение данных о статусе телефона",
        "permlab_readSms": "Просмотр SMS и MMS",
        "permlab_readSyncSettings": "Просмотр настроек синхронизации",
        "permlab_readSyncStats": "Просмотр статистики синхронизации",
        "permlab_receiveBootCompleted": "Запуск при включении устройства",
        "permlab_receiveMms": "Прием MMS-сообщений",
        "permlab_receiveSms": "Прием SMS-сообщений",
        "permlab_receiveWapPush": "Прием WAP-сообщений",
        "permlab_recordAudio": "Запись аудио",
        "permlab_register_call_provider": "регистрация новых операторов связи",
        "permlab_register_sim_subscription": "регистрация новых SIM-карт",
        "permlab_removeDrmCertificates": "удаление сертификатов DRM",
        "permlab_reorderTasks": "Упорядочивание запущенных приложений",
        "permlab_requestDeletePackages": "запросы на удаление пакетов",
        "permlab_requestIgnoreBatteryOptimizations": "Без ограничения расхода батареи",
        "permlab_requestInstallPackages": "Запрос пакетов установки",
        "permlab_route_media_output": "Перенаправление вывода мультимедиа",
        "permlab_runInBackground": "Работа в фоновом режиме",
        "permlab_sdcardRead": "Считывание содержимого SD-карты",
        "permlab_sdcardWrite": "Изменение или удаление содержимого SD-карты",
        "permlab_sendSms": "Отправка и просмотр SMS-сообщений",
        "permlab_setAlarm": "Установка будильника",
        "permlab_setInputCalibration": "изменение параметров калибровки экрана",
        "permlab_setTimeZone": "Настройка часового пояса",
        "permlab_setWallpaper": "Установка обоев",
        "permlab_setWallpaperHints": "Изменение размера обоев",
        "permlab_sim_communication": "Отправка команд SIM-карте",
        "permlab_statusBar": "Отключение/изменение строки состояния",
        "permlab_statusBarService": "Замена строки состояния",
        "permlab_subscribedFeedsRead": "Просмотр фидов пользователя",
        "permlab_systemAlertWindow": "Показ поверх всех окон",
        "permlab_transmitIr": "использовать инфракрасный передатчик",
        "permlab_uninstall_shortcut": "Удаление ярлыков",
        "permlab_useBiometric": "Использование биометрического оборудования",
        "permlab_useDataInBackground": "Передача данных в фоновом режиме",
        "permlab_useFingerprint": "Использование сканера отпечатков",
        "permlab_use_sip": "Входящие и исходящие вызовы SIP",
        "permlab_vibrate": "Управление функцией вибросигнала",
        "permlab_wakeLock": "Отключение спящего режима",
        "permlab_writeCalendar": "Добавление/изменение мероприятий и отправление гостям эл. сообщений без предупреждения владельца календаря",
        "permlab_writeCallLog": "Изменение журнала вызовов",
        "permlab_writeContacts": "Изменение контактов",
        "permlab_writeGeolocationPermissions": "Изменение прав доступа к геоданным в браузере",
        "permlab_writeHistoryBookmarks": "Изменение закладок и истории поиска",
        "permlab_writeSettings": "Изменение настроек системы",
        "permlab_writeSyncSettings": "Включение/выключение синхронизации"
    },
    "sidebars": {
        "donate": {
            "bank_transfer_name": "Наименование",
            "bitcoin_alt": "Пожертвовать Bitcoin",
            "flattr_alt": "Пожертвовать через Flattr",
            "heading": "Пожертвовать",
            "hellotux": "👕 Футболки 👕 от",
            "hellotux_alt": "HELLOTUX",
            "hellotux_donation": "F-Droid получает по 3€ с каждой проданной  футболки.",
            "liberapay_alt": "Пожертвовать через Liberapay",
            "litecoin_alt": "Пожертвовать Litecoin",
            "paypal_alt": "Пожертвовать через PayPal",
            "powered_by_donations": "F-Droid существует благодаря Вашим пожертвованиям!",
            "via_bank_transfer": "Банковский перевод"
        },
        "lang": {
            "change": "Выбрать"
        },
        "last_updated": {
            "heading": "Обновлённые"
        },
        "latest_packages": {
            "heading": "Новые приложения"
        },
        "news": {
            "heading": "Новости"
        },
        "search": {
            "heading": "Поиск приложений",
            "noscript": "Необходимо включить JavaScript",
            "search": "Найти"
        }
    }
}
