{
    "index": {
        "download_fdroid": "Κατεβάστε Το F-Droid",
        "gpg_signature": "Υπογραφή PGP",
        "introduction": "Το F-Droid είναι ένας κατάλογος εφαρμογών ΕΛΛΑΚ (Ελεύθερο Λογισμικό / Λογισμικό Ανοικτού Κώδικα) για την πλατφόρμα Android. Ο πελάτης διευκολύνει την περιήγηση, την εγκατάσταση και την παρακολούθηση των ενημερώσεων στη συσκευή σας.",
        "screenshot": "Στιγμιότυπο οθόνης Android εφαρμογής F-Droid",
        "title": "Τι είναι το F-Droid;"
    },
    "navigation": {
        "about": "Σχετικά",
        "browse": "Περιήγηση",
        "contribute": "Συνεισφέρετε",
        "documentation": "Έγγραφα",
        "forum": "Φόρουμ",
        "issues": "Θέματα",
        "news": "Νέα"
    },
    "package": {
        "anti_features": "Aνεπιθύμητα χαρακτηριστικά",
        "anti_features_warning": "Αυτή η εφαρμογή έχει χαρακτηριστικά που μπορεί να μην σας αρέσουν.",
        "author": "Δημιουργός",
        "build_metadata": "Δημιουργία μεταδεδομένων",
        "changelog": "Ιστορικό αλλαγών",
        "donate": "Δωρεά",
        "download": "Λήψη [file_extension]",
        "flattr": "Flattr",
        "gpg_signature": "Υπογραφή PGP",
        "issue_tracker": "Ιχνηλάτης Θεμάτων",
        "liberapay": "Liberapay",
        "license": "Άδεια",
        "minimum_android_version": "Αυτή η έκδοση απαιτεί Android [android_version] ή νεότερο.",
        "new_in_version": "Νέο στην έκδοση [latest_version]",
        "packages": "Πακέτα",
        "permissions": "Δικαιώματα",
        "signed_by_developer": "Είναι χτισμένο και υπογεγραμμένο από τον αρχικό προγραμματιστή.",
        "signed_by_fdroid": "Είναι χτισμένο και υπογεγραμμένο από το F-Droid, και εγγυημένο ότι θα αντιστοιχεί σε <a href=\"[source_code_url]\">αυτή τη πηγή tarball</a>.",
        "source_code": "Πηγαίος Κώδικας",
        "suggest_downloading_via_fdroid": "Αν και λήψεις APK είναι διαθέσιμες παρακάτω για να σας δώθει η επιλογή, θα πρέπει να γνωρίζετε ότι με την εγκατάσταση με αυτόν τον τρόπο δεν θα λαμβάνετε ειδοποιήσεις ενημέρωσης και είναι ένας λιγότερο ασφαλής τρόπος για να κατεβάσετε. Συνιστούμε να εγκαταστήσετε τον πελάτη F-Droid και να το χρησιμοποιήσετε.",
        "technical_info": "Τεχνικές πληροφορίες",
        "translation": "Μεταφράση",
        "version_info": "<b>Έκδοση [package_version]</b> ([package_version_code]) - Προστέθηκε το [package_added_date]",
        "website": "Ιστοσελίδα"
    },
    "sidebars": {
        "donate": {
            "bank_transfer_name": "Όνομα",
            "bitcoin_alt": "Δωρίστε μέσω Bitcoin",
            "flattr_alt": "Δωρίστε μέσω του Flattr",
            "heading": "Δωρίστε",
            "hellotux": "👕 Μπλουζάκια 👕 από",
            "hellotux_alt": "HELLOTUX",
            "hellotux_donation": "Το F-Droid θα λάβετε 3€ ανά μπλούζα που πωλείται.",
            "liberapay_alt": "Δωρίστε μέσω Liberapay",
            "litecoin_alt": "Δωρίστε μέσω Litecoin",
            "paypal_alt": "Δωρίστε μέσω PayPal",
            "powered_by_donations": "Το F-Droid τροφοδοτείται από τις δωρεές σας!",
            "via_bank_transfer": "Τραπεζικό έμβασμα"
        },
        "lang": {
            "change": "Αλλαγή"
        },
        "last_updated": {
            "heading": "Τελευταία ενημέρωση"
        },
        "latest_packages": {
            "heading": "Τελευταίες εφαρμογές"
        },
        "news": {
            "heading": "Νέα"
        },
        "search": {
            "heading": "Εύρεση εφαρμογών",
            "noscript": "Απαιτεί την ενεργοποίηση του JavaScript",
            "search": "Αναζήτηση"
        }
    }
}
